{
    "applications": {
        "Together!": {
            "applicationId": "WMuz6suha6Wm12LON0RqLR1fKjQpOZjN9hEWPNBO", 
            "masterKey": "pVUwJDk5FXJtcwhEtfqqBwGaiqcWuuGEKFNT42J3"
        }, 
        "_default": {
            "link": "Together!"
        }
    }
}